{
  "fluentMethods": true,
  "clientRootFolder": "",
  "relationships": [],
  "fields": [
    {
      "fieldName": "prenom",
      "fieldType": "String"
    },
    {
      "fieldName": "nom",
      "fieldType": "String"
    },
    {
      "fieldName": "estRadin",
      "fieldType": "Boolean"
    }
  ],
  "changelogDate": "20210128122103",
  "dto": "mapstruct",
  "searchEngine": false,
  "service": "serviceImpl",
  "entityTableName": "mangeur",
  "databaseType": "sql",
  "readOnly": false,
  "jpaMetamodelFiltering": false,
  "pagination": "no"
}
